Instance,Method,Makespan
la01,IfThenElse,709
la01,Cumulative,675
la01,Optimal,666
la02,IfThenElse,894
la02,Cumulative,668
la02,Optimal,655
la03,IfThenElse,729
la03,Cumulative,641
la03,Optimal,597
la04,IfThenElse,730
la04,Cumulative,714
la04,Optimal,590
la05,IfThenElse,654
la05,Cumulative,593
la05,Optimal,593
la06,IfThenElse,1089
la06,Cumulative,968
la06,Optimal,926
la07,IfThenElse,1187
la07,Cumulative,935
la07,Optimal,890
la08,IfThenElse,1089
la08,Cumulative,960
la08,Optimal,863
la09,IfThenElse,951
la09,Cumulative,995
la09,Optimal,951
la10,IfThenElse,989
la10,Cumulative,1024
la10,Optimal,958